{
  "users": [
    {
      "id": 1,
      "name": "Graham",
      "username": "Bret",
      "email": "since@gmail.com",
      "password": "12345678"
    },
    {
      "id": 2,
      "name": "Andrew",
      "username": "Piter",
      "email": "serec@gmail.com",
      "password": "12345678"
    }
  ]
}
